<?xml version="1.0" encoding="utf-8"?>

<svg version="1.1" id="Icons" xmlns="http://www.w3.org/2000/svg" x="0px" y="0px"
     viewBox="0 -8 32 32" style="enable-background:new 0 0 32 32;" xml:space="preserve">
<style type="text/css">
	.st0 {
		fill:none;
		stroke: #000000;
		stroke-width: 3;
		stroke-linecap: round;
		stroke-linejoin: round;
		stroke-miterlimit: 10;
	}
</style>
    <line class="st0" x1="15" y1="15" x2="30" y2="2"/>
    <line class="st0" x1="2" y1="2" x2="15" y2="15"/>
</svg>
